02/05/2013;00000033805;TRF DESDE OTRO BCO  99053588V016813313   0108                    ;                 +1.600,00;                     19.023,95;
02/05/2013;00181018386;TRANS.CTAS                                                       ;                   +460,00;                     19.483,95;
03/05/2013;00000020467;TRF DESDE OTRO BCO  00000000000000217822 0105                    ;                   +800,00;                     20.283,95;
03/05/2013;00000023380;TRF DESDE OTRO BCO  00000000000000240384 0105                    ;                 +1.600,00;                     21.883,95;
03/05/2013;00000023417;TRF DESDE OTRO BCO  00000000000000240537 0105                    ;                   +490,00;                     22.373,95;
03/05/2013;00181236445;TRANS.CTAS                                                       ;                   +400,00;                     22.773,95;
03/05/2013;00181257019;TRANS.CTAS                                                       ;                   +800,00;                     23.573,95;
03/05/2013;00181350295;TRANS.CTAS                                                       ;                   +800,00;                     24.373,95;
06/05/2013;00000016831;TRF DESDE OTRO BCO  00000000000000285929 0105                    ;                   +800,00;                     25.173,95;
06/05/2013;00181775729;TRANS.CTAS                                                       ;                   +800,00;                     25.973,95;
06/05/2013;00182000812;TRANS.CTAS                                                       ;                 +4.000,00;                     29.973,95;
07/05/2013;00182123828;TRANS.CTAS                                                       ;                   +800,00;                     30.773,95;
09/05/2013;00000106677;TRF DESDE OTRO BCO  99407034V012069052   0108                    ;                 +1.600,00;                     32.373,95;
10/05/2013;00043700143;CHEQUE :     00043700143                                         ;                -20.000,00;                     12.373,95;
10/05/2013;00183119687;TRANS.CTAS                                                       ;                   +800,00;                     13.173,95;
10/05/2013;00183132516;TRANS.CTAS                                                       ;                   +800,00;                     13.973,95;
14/05/2013;00000220912;TRF DESDE OTRO BCO  99518121V017224541   0108                    ;                   +800,00;                     14.773,95;
14/05/2013;01414553051;DEPOSITO     01414553051                                         ;                   +800,00;                     15.573,95;
15/05/2013;00184054465;TRANS.CTAS                                                       ;                   +800,00;                     16.373,95;
16/05/2013;00000028691;TRF DESDE OTRO BCO  00000000000000762856 0105                    ;                   +800,00;                     17.173,95;
16/05/2013;00012700144;CH. COMP. 12700144                                               ;                 -4.000,00;                     13.173,95;
17/05/2013;01109220276;DEPOSITO     01109220276                                         ;                 +1.600,00;                     14.773,95;
22/05/2013;00185521303;TRANS.CTAS                                                       ;                   +200,00;                     14.973,95;
23/05/2013;00000000002;PAGO PROVE /EDI GRUPO APROVECH                                   ;                 +2.059,99;                     17.033,94;
23/05/2013;01912232684;DEPOSITO     01912232684                                         ;                 +3.200,00;                     20.233,94;
28/05/2013;00038700146;CHEQUE RECIBIDO (MMK)                                            ;                -14.185,00;                      6.048,94;
30/05/2013;00187226085;TRANS.CTAS                                                       ;                   +800,00;                      6.848,94;
31/05/2013;00000135836;TRF DESDE OTRO BCO  00000000000000461131 0105                    ;                 +1.000,00;                      7.848,94;
31/05/2013;00000000000;COM.SERV.MTTO CTA                                                ;                     -4,50;                      7.844,44;
31/05/2013;00000000000;EMISION DE ESTADO DE CUENTA                                      ;                     -1,40;                      7.843,04;
04/06/2013;00187904403;TRANS.CTAS                                                       ;                 +2.800,00;                     10.643,04;
10/06/2013;37067101293;DEPOSITO EN CUENTA CON CHEQUE                                    ;                 +1.200,00;                     11.843,04;
12/06/2013;00000013954;TRF DESDE OTRO BCO  00000000000000908042 0105                    ;                   +200,00;                     12.043,04;
14/06/2013;00191164961;TRANS.CTAS                                                       ;                 +1.200,00;                     13.243,04;
28/06/2013;01110160731;DEPOSITO     01110160731                                         ;                 +1.600,00;                     14.843,04;
28/06/2013;01516045003;DEPOSITO     01516045003                                         ;                 +1.200,00;                     16.043,04;
28/06/2013;00000000000;COM.SERV.MTTO CTA                                                ;                     -4,50;                     16.038,54;
28/06/2013;00000000000;EMISION DE ESTADO DE CUENTA                                      ;                     -1,40;                     16.037,14;
04/07/2013;01311455965;DEPOSITO     01311455965                                         ;                 +2.800,00;                     18.837,14;
12/07/2013;00197567836;TRANS.CTAS                                                       ;                 +1.800,00;                     20.637,14;
16/07/2013;00000031008;TRF DESDE OTRO BCO  92105501V012069052   0108                    ;                 +1.600,00;                     22.237,14;
18/07/2013;00199107054;TRANS.CTAS                                                       ;                 +2.000,00;                     24.237,14;
19/07/2013;04971020047;TRANS.CTAS                                                       ;                -14.000,00;                     10.237,14;
25/07/2013;00200380508;TRANS.CTAS                                                       ;                   +800,00;                     11.037,14;
31/07/2013;00000000000;COM.SERV.MTTO CTA                                                ;                     -4,50;                     11.032,64;
31/07/2013;00000000000;EMISION DE ESTADO DE CUENTA                                      ;                     -1,40;                     11.031,24;
01/08/2013;00000168046;TRF DESDE OTRO BCO  92828165V012069052   0108                    ;                   +900,00;                     11.931,24;
02/08/2013;00000138339;TRF DESDE OTRO BCO  996161               0151                    ;                 +1.200,00;                     13.131,24;
02/08/2013;00000174141;TRF DESDE OTRO BCO  92903803J001603956   0108                    ;                 +5.600,00;                     18.731,24;
02/08/2013;01215314293;DEPOSITO     01215314293                                         ;                 +1.900,00;                     20.631,24;
02/08/2013;01215315959;DEPOSITO     01215315959                                         ;                 +1.900,00;                     22.531,24;
14/08/2013;22616735638;C.RECHAZO ATM                                                    ;                     -0,75;                     22.530,49;
14/08/2013;22634948037;RETIRO ATM CTA/CTE                                               ;                   -600,00;                     21.930,49;
14/08/2013;00205465555;TRANS.CTAS                                                       ;                 +1.000,00;                     22.930,49;
15/08/2013;00205889318;TRANS.CTAS                                                       ;                 +2.357,15;                     25.287,64;
16/08/2013;29332619860;TRF TRANSFER/OTROS BANCOS     0105                               ;                 -5.000,00;                     20.287,64;
16/08/2013;29332619860;COMISION TRF OTROS BCOS                                          ;                     -1,60;                     20.286,04;
20/08/2013;00207130547;TRANS.CTAS                                                       ;                   +600,00;                     20.886,04;
20/08/2013;00207133492;TRANS.CTAS                                                       ;                   -815,36;                     20.070,68;
23/08/2013;00000084532;TRF DESDE OTRO BCO  00000000000000157899 0105                    ;                 +1.600,00;                     21.670,68;
29/08/2013;29530509070;TRF TRANSFER/OTROS BANCOS     0105                               ;                   -900,00;                     20.770,68;
29/08/2013;29530509070;COMISION TRF OTROS BCOS                                          ;                     -1,60;                     20.769,08;
29/08/2013;00209389935;TRANS.CTAS                                                       ;                   +600,00;                     21.369,08;
30/08/2013;00000000000;COM.SERV.MTTO CTA                                                ;                     -4,50;                     21.364,58;
30/08/2013;00000000000;EMISION DE ESTADO DE CUENTA                                      ;                     -1,40;                     21.363,18;
03/09/2013;29613610580;TRF TRANSFER/OTROS BANCOS     0105                               ;                 -1.680,00;                     19.683,18;
03/09/2013;29613610580;COMISION TRF OTROS BCOS                                          ;                     -1,60;                     19.681,58;
03/09/2013;04971020047;TRANS.CTAS                                                       ;                -10.000,00;                      9.681,58;
09/09/2013;29718078360;TRF TRANSFER/OTROS BANCOS     0105                               ;                 -5.000,00;                      4.681,58;
09/09/2013;29718078360;COMISION TRF OTROS BCOS                                          ;                     -1,60;                      4.679,98;
11/09/2013;00000108274;TRF DESDE OTRO BCO       TESIP04314718   0121                    ;                +15.000,00;                     19.679,98;
17/09/2013;00214395515;TRANS.CTAS                                                       ;                   -610,00;                     19.069,98;
17/09/2013;00214453878;TRANS.CTAS                                                       ;                 -1.692,00;                     17.377,98;
18/09/2013;29875996930;TRF TRANSFER/OTROS BANCOS     0102                               ;                 -2.000,00;                     15.377,98;
18/09/2013;29875996930;COMISION TRF OTROS BCOS                                          ;                     -1,60;                     15.376,38;
18/09/2013;29875972620;TRF TRANSFER/OTROS BANCOS     0105                               ;                 -2.000,00;                     13.376,38;
18/09/2013;29875972620;COMISION TRF OTROS BCOS                                          ;                     -1,60;                     13.374,78;
23/09/2013;29936189580;TRF TRANSFER/OTROS BANCOS     0105                               ;                   -150,00;                     13.224,78;
23/09/2013;29936189580;COMISION TRF OTROS BCOS                                          ;                     -1,60;                     13.223,18;
30/09/2013;38620322651;DEPOSITO EN CUENTA CON CHEQUE                                    ;                 +3.494,64;                     16.717,82;
30/09/2013;00000000000;COM.SERV.MTTO CTA                                                ;                     -4,50;                     16.713,32;
30/09/2013;00000000000;EMISION DE ESTADO DE CUENTA                                      ;                     -1,40;                     16.711,92;
30/09/2013;04971020047;TRANS.CTAS                                                       ;                -10.000,00;                      6.711,92;
01/10/2013;00000163043;TRF DESDE OTRO BCO       TESIP04340324   0121                    ;                 +5.000,00;                     11.711,92;
03/10/2013;30140525160;TRF TRANSFER/OTROS BANCOS     0105                               ;                   -100,24;                     11.611,68;
03/10/2013;30140525160;COMISION TRF OTROS BCOS                                          ;                     -1,60;                     11.610,08;
04/10/2013;00219358575;TRANS.CTAS                                                       ;                   -538,16;                     11.071,92;
07/10/2013;00219577703;TRANS.CTAS                                                       ;                   -580,00;                     10.491,92;
07/10/2013;00219578257;TRANS.CTAS                                                       ;                   -580,00;                      9.911,92;
21/10/2013;33753750669;DEPOSITO     33753750669                                         ;                 +1.000,00;                     10.911,92;
22/10/2013;00000106513;TRF DESDE OTRO BCO       TESIP04362604   0121                    ;                +10.385,32;                     21.297,24;
22/10/2013;00224223356;TRANS.CTAS                                                       ;                 -9.500,00;                     11.797,24;
25/10/2013;00225074710;TRANS.CTAS                                                       ;                 +3.800,00;                     15.597,24;
28/10/2013;30565090890;TRF TRANSFER/OTROS BANCOS     0115                               ;                   -200,00;                     15.397,24;
28/10/2013;30565090890;COMISION TRF OTROS BCOS                                          ;                     -1,60;                     15.395,64;
28/10/2013;00000009257;TRF DESDE OTRO BCO  00000000000000167587 0105                    ;                 +1.250,00;                     16.645,64;
31/10/2013;00000026928;TRF DESDE OTRO BCO  00000000000000395512 0105                    ;                 +1.000,00;                     17.645,64;
31/10/2013;00000000000;COM.SERV.MTTO CTA                                                ;                     -4,50;                     17.641,14;
31/10/2013;00000000000;EMISION DE ESTADO DE CUENTA                                      ;                     -1,40;                     17.639,74;
05/11/2013;00000020409;TRF DESDE OTRO BCO  00000000000000550074 0105                    ;                 +1.250,00;                     18.889,74;
05/11/2013;00000202869;TRF DESDE OTRO BCO  00000000000000576620 0105                    ;                 +1.300,00;                     20.189,74;
07/11/2013;00229294518;TRANS.CTAS                                                       ;                   -950,00;                     19.239,74;
08/11/2013;30818843750;TRF TRANSFER/OTROS BANCOS     0102                               ;                 -5.000,00;                     14.239,74;
08/11/2013;30818843750;COMISION TRF OTROS BCOS                                          ;                     -1,60;                     14.238,14;
08/11/2013;30812880710;TRF TRANSFER/OTROS BANCOS     0102                               ;                 -3.495,50;                     10.742,64;
08/11/2013;30812880710;COMISION TRF OTROS BCOS                                          ;                     -1,60;                     10.741,04;
11/11/2013;00000015607;TRF DESDE OTRO BCO  00000000000000893686 0105                    ;                   +600,00;                     11.341,04;
15/11/2013;30955926470;TRF TRANSFER/OTROS BANCOS     0105                               ;                   -500,00;                     10.841,04;
15/11/2013;30955926470;COMISION TRF OTROS BCOS                                          ;                     -1,60;                     10.839,44;
15/11/2013;30947612960;TRF TRANSFER/OTROS BANCOS     0108                               ;                 -6.000,00;                      4.839,44;
15/11/2013;30947612960;COMISION TRF OTROS BCOS                                          ;                     -1,60;                      4.837,84;
15/11/2013;00000030932;TRF DESDE OTRO BCO  00000000000000200613 0105                    ;                 +1.200,00;                      6.037,84;
15/11/2013;00000154867;TRF DESDE OTRO BCO  00000000000000247790 0105                    ;                   +600,00;                      6.637,84;
18/11/2013;00000227426;TRF DESDE OTRO BCO       TESIP04391921   0121                    ;                +12.000,00;                     18.637,84;
10/05/2013;00000690454;DEPOSITO CUENTA CORRIENTE                                        ;                +20.000,00;                     20.000,00;
10/05/2013;00018362951;COMIS.POR CHEQUERA                                               ;                     -6,00;                     19.994,00;
16/05/2013;00018362951;CHEQUE :     00018362951                                         ;                 -1.742,00;                     18.252,00;
17/05/2013;00024362953;CHEQUE RECIBIDO (MMK)                                            ;                 -2.000,00;                     16.252,00;
20/05/2013;00011362952;CH. COMP. 11362952                                               ;                 -4.000,00;                     12.252,00;
20/05/2013;00010362955;CHEQUE RECIBIDO (MMK)                                            ;                 -1.500,00;                     10.752,00;
21/05/2013;00185301868;TRANS.CTAS                                                       ;                   +900,00;                     11.652,00;
23/05/2013;00000019056;TRF DESDE OTRO BCO  99915956V012065005   0108                    ;                   +600,00;                     12.252,00;
24/05/2013;00037362958;CHEQUE RECIBIDO (MMK)                                            ;                 -1.830,00;                     10.422,00;
24/05/2013;00025362956;CHEQUE :     00025362956                                         ;                 -2.560,00;                      7.862,00;
24/05/2013;12960574602;DEPOSITO     12960574602                                         ;                   +600,00;                      8.462,00;
27/05/2013;00000020941;TRF DESDE OTRO BCO  00000000000031873955 0102                    ;                   +600,00;                      9.062,00;
27/05/2013;00000061296;TRF DESDE OTRO BCO  00000000000000192366 0105                    ;                 +3.200,00;                     12.262,00;
28/05/2013;00186819892;TRANS.CTAS                                                       ;                 +2.400,00;                     14.662,00;
29/05/2013;02015125584;DEPOSITO     02015125584                                         ;                 +1.200,00;                     15.862,00;
30/05/2013;00000002481;TRF DESDE OTRO BCO  00000000000032658283 0102                    ;                 +1.800,00;                     17.662,00;
30/05/2013;00000023814;TRF DESDE OTRO BCO  90162239V019128984   0108                    ;                 +1.000,00;                     18.662,00;
30/05/2013;00042362959;CHEQUE RECIBIDO (MMK)                                            ;                 -2.730,00;                     15.932,00;
04/06/2013;00000106610;TRF DESDE OTRO BCO  00000000000000548029 0105                    ;                 +1.200,00;                     17.132,00;
04/06/2013;00188173493;TRANS.CTAS                                                       ;                 +1.600,00;                     18.732,00;
05/06/2013;00188891530;TRANS.CTAS                                                       ;                 +2.000,00;                     20.732,00;
06/06/2013;00000001541;TRF DESDE OTRO BCO  00000000000034130915 0102                    ;                   +600,00;                     21.332,00;
06/06/2013;00000023873;TRF DESDE OTRO BCO  00000000000000678050 0105                    ;                   +600,00;                     21.932,00;
06/06/2013;00046362960;CHEQUE :     00046362960                                         ;                 -7.500,00;                     14.432,00;
06/06/2013;00188949037;TRANS.CTAS                                                       ;                   +600,00;                     15.032,00;
07/06/2013;00189297566;TRANS.CTAS                                                       ;                 +1.200,00;                     16.232,00;
07/06/2013;00189302520;TRANS.CTAS                                                       ;                 +1.200,00;                     17.432,00;
10/06/2013;00189768814;TRANS.CTAS A TERCERO EN BANESCO                                  ;                 +1.200,00;                     18.632,00;
11/06/2013;01112334698;DEPOSITO     01112334698                                         ;                   +700,00;                     19.332,00;
13/06/2013;00000022241;TRF DESDE OTRO BCO  90735073V012065005   0108                    ;                   +600,00;                     19.932,00;
13/06/2013;00000106927;TRF DESDE OTRO BCO  00000000000035414154 0102                    ;                   +600,00;                     20.532,00;
14/06/2013;00044362962;CHEQUE RECIBIDO (MMK)                                            ;                 -9.500,00;                     11.032,00;
14/06/2013;00048362964;CHEQUE :     00048362964                                         ;                 -1.742,00;                      9.290,00;
14/06/2013;00035362963;CHEQUE :     00035362963                                         ;                   -861,00;                      8.429,00;
18/06/2013;00191778597;TRANS.CTAS                                                       ;                   +600,00;                      9.029,00;
18/06/2013;00191931768;TRANS.CTAS                                                       ;                 +1.200,00;                     10.229,00;
19/06/2013;00000003114;TRF DESDE OTRO BCO  00000000000075520238 0102                    ;                 +1.900,00;                     12.129,00;
19/06/2013;00000015625;TRF DESDE OTRO BCO  00000000000000247296 0105                    ;                 +1.000,00;                     13.129,00;
19/06/2013;01114255296;DEPOSITO     01114255296                                         ;                 +8.276,78;                     21.405,78;
19/06/2013;00027362965;CHEQUE :     00027362965                                         ;                 -3.581,59;                     17.824,19;
21/06/2013;36860572236;DEPOSITO     36860572236                                         ;                   +600,00;                     18.424,19;
21/06/2013;36860572237;DEPOSITO     36860572237                                         ;                 +1.000,00;                     19.424,19;
25/06/2013;00000097338;TRF DESDE OTRO BCO  00000000000037413932 0102                    ;                   +600,00;                     20.024,19;
26/06/2013;00010362968;CHEQUE :     00010362968                                         ;                 -1.000,00;                     19.024,19;
26/06/2013;00023362967;CHEQUE RECIBIDO (MMK)                                            ;                 -4.000,00;                     15.024,19;
26/06/2013;00193549837;TRANS.CTAS                                                       ;                 +3.800,00;                     18.824,19;
27/06/2013;01214120475;DEPOSITO     01214120475                                         ;                 +2.000,00;                     20.824,19;
27/06/2013;00193656760;TRANS.CTAS                                                       ;                 +2.000,00;                     22.824,19;
28/06/2013;00000156092;TRF DESDE OTRO BCO  000000099566949      0104                    ;                 +2.000,00;                     24.824,19;
28/06/2013;00038362966;CH. COMP. 38362966                                               ;                 -4.716,00;                     20.108,19;
28/06/2013;00000000000;COM.SERV.MTTO CTA                                                ;                     -4,50;                     20.103,69;
28/06/2013;00000000000;EMISION DE ESTADO DE CUENTA                                      ;                     -1,40;                     20.102,29;
28/06/2013;00047362970;CHEQUE :     00047362970                                         ;                 -1.229,00;                     18.873,29;
28/06/2013;00194021691;TRANS.CTAS                                                       ;                 +1.600,00;                     20.473,29;
01/07/2013;00000011765;TRF DESDE OTRO BCO  00000000000000683113 0105                    ;                   +800,00;                     21.273,29;
01/07/2013;00000175016;TRF DESDE OTRO BCO  00000000000000753925 0105                    ;                 +3.800,00;                     25.073,29;
08/07/2013;00000156729;TRF DESDE OTRO BCO  00000000000000066008 0105                    ;                 +3.800,00;                     28.873,29;
08/07/2013;00000207604;TRF DESDE OTRO BCO  91765340V017423414   0108                    ;                 +3.800,00;                     32.673,29;
08/07/2013;01614503234;DEPOSITO     01614503234                                         ;                 +1.800,00;                     34.473,29;
08/07/2013;00024362971;CHEQUE :     00024362971                                         ;                 -1.230,00;                     33.243,29;
08/07/2013;00037362972;CHEQUE RECIBIDO (MMK)                                            ;                   -600,00;                     32.643,29;
08/07/2013;00196469292;TRANS.CTAS                                                       ;                 +1.200,00;                     33.843,29;
08/07/2013;01114444444;DEPOSITO     01114444444                                         ;                 +1.200,00;                     35.043,29;
09/07/2013;00000014570;TRF DESDE OTRO BCO  00000000000000095569 0105                    ;                 +3.800,00;                     38.843,29;
09/07/2013;00196753060;TRANS.CTAS                                                       ;                 +1.200,00;                     40.043,29;
10/07/2013;00000001095;TRF DESDE OTRO BCO  00000000000040642660 0102                    ;                   +900,00;                     40.943,29;
10/07/2013;25622562744;DEPOSITO     25622562744                                         ;                   +600,00;                     41.543,29;
10/07/2013;00046362973;CHEQUE RECIBIDO (MMK)                                            ;                 -2.000,00;                     39.543,29;
10/07/2013;00039362974;CHEQUE :     00039362974                                         ;                 -1.000,00;                     38.543,29;
10/07/2013;00196871145;TRANS.CTAS                                                       ;                 +3.800,00;                     42.343,29;
11/07/2013;00000002842;TRF DESDE OTRO BCO  00000000000040877141 0102                    ;                 +1.600,00;                     43.943,29;
11/07/2013;00000125915;TRF DESDE OTRO BCO  91922207V019721162   0108                    ;                 +3.800,00;                     47.743,29;
12/07/2013;00000148713;TRF DESDE OTRO BCO  91995642V012069052   0108                    ;                   +900,00;                     48.643,29;
12/07/2013;00044362975;CHEQUE :     00044362975                                         ;                   -545,00;                     48.098,29;
12/07/2013;00197497989;TRANS.CTAS                                                       ;                   +900,00;                     48.998,29;
15/07/2013;00000147673;TRF DESDE OTRO BCO  00000000000000363212 0105                    ;                 +2.000,00;                     50.998,29;
15/07/2013;00045385401;CHEQUE :     00045385401                                         ;                   -594,00;                     50.404,29;
15/07/2013;19634940618;C.RECHAZO ATM                                                    ;                     -0,75;                     50.403,54;
15/07/2013;19634940622;RETIRO ATM CTA/CTE                                               ;                   -600,00;                     49.803,54;
16/07/2013;00048385404;CHEQUE RECIBIDO (MMK)                                            ;                 -3.700,00;                     46.103,54;
16/07/2013;00035385403;CHEQUE RECIBIDO (MMK)                                            ;                 -6.000,00;                     40.103,54;
18/07/2013;00034385406;CHEQUE :     00034385406                                         ;                 -1.230,00;                     38.873,54;
18/07/2013;00199118341;TRANS.CTAS                                                       ;                 +3.000,00;                     41.873,54;
19/07/2013;20020307888;COMPRA POS CTA/CTE                                               ;                   -255,00;                     41.618,54;
19/07/2013;00037385405;CH. COMP. 37385405                                               ;                 -3.750,00;                     37.868,54;
19/07/2013;20033426324;RETIRO ATM CTA/CTE                                               ;                   -600,00;                     37.268,54;
19/07/2013;04971020047;TRANS.CTAS                                                       ;                +14.000,00;                     51.268,54;
22/07/2013;20115412825;COMPRA POS CTA/CTE                                               ;                   -440,00;                     50.828,54;
22/07/2013;40001388450;COMPRA POS CTA/CTE                                               ;                    -67,50;                     50.761,04;
22/07/2013;20110296765;C.RECHAZO ATM                                                    ;                     -1,10;                     50.759,94;
22/07/2013;20113516917;RETIRO ATM CTA/CTE                                               ;                   -200,00;                     50.559,94;
22/07/2013;20132161912;RETIRO ATM CTA/CTE                                               ;                   -400,00;                     50.159,94;
23/07/2013;00022385408;CHEQUE :     00022385408                                         ;                 -5.600,00;                     44.559,94;
23/07/2013;00013385407;CHEQUE RECIBIDO (MMK)                                            ;                 -2.800,00;                     41.759,94;
23/07/2013;00033385409;CHEQUE RECIBIDO (MMK)                                            ;                -10.366,00;                     31.393,94;
25/07/2013;00000144387;TRF DESDE OTRO BCO  000000037629635      0104                    ;                 +2.400,00;                     33.793,94;
25/07/2013;20616731097;RETIRO ATM CTA/CTE                                               ;                   -400,00;                     33.393,94;
26/07/2013;01710361220;DEPOSITO     01710361220                                         ;                 +1.900,00;                     35.293,94;
26/07/2013;20717233178;RETIRO ATM CTA/CTE                                               ;                   -600,00;                     34.693,94;
26/07/2013;00200879736;TRANS.CTAS                                                       ;                 +3.800,00;                     38.493,94;
29/07/2013;20803110015;COMPRA POS CTA/CTE                                               ;                   -570,00;                     37.923,94;
29/07/2013;20923160038;COMPRA POS CTA/CTE                                               ;                   -225,00;                     37.698,94;
29/07/2013;20912390064;COMPRA POS CTA/CTE                                               ;                   -445,07;                     37.253,87;
30/07/2013;21116544579;COMPRA POS CTA/CTE                                               ;                   -120,00;                     37.133,87;
30/07/2013;21122021995;COMPRA POS CTA/CTE                                               ;                 -2.370,00;                     34.763,87;
30/07/2013;00000003954;TRF DESDE OTRO BCO  00000000000044572073 0102                    ;                 +2.600,00;                     37.363,87;
30/07/2013;01909173153;DEPOSITO     01909173153                                         ;                 +1.200,00;                     38.563,87;
31/07/2013;21215166132;COMPRA POS CTA/CTE                                               ;                 -1.225,00;                     37.338,87;
31/07/2013;00029362969;CHEQUE RECIBIDO (MMK)                                            ;                 -1.000,00;                     36.338,87;
31/07/2013;00000000000;COM.SERV.MTTO CTA                                                ;                     -4,50;                     36.334,37;
31/07/2013;00000000000;EMISION DE ESTADO DE CUENTA                                      ;                     -1,40;                     36.332,97;
01/08/2013;21315889442;COMPRA POS CTA/CTE                                               ;                   -136,00;                     36.196,97;
01/08/2013;21316057498;COMPRA POS CTA/CTE                                               ;                   -895,00;                     35.301,97;
01/08/2013;21371970020;COMPRA POS CTA/CTE                                               ;                   -180,82;                     35.121,15;
01/08/2013;00027385410;CH. COMP. 27385410                                               ;                 -1.629,00;                     33.492,15;
02/08/2013;00013385412;CHEQUE RECIBIDO (MMK)                                            ;                 -1.900,00;                     31.592,15;
06/08/2013;00203647721;TRANS.CTAS                                                       ;                   -580,00;                     31.012,15;
07/08/2013;21915413205;COMPRA POS CTA/CTE                                               ;                   -960,00;                     30.052,15;
07/08/2013;40001980247;COMPRA POS CTA/CTE                                               ;                   -476,99;                     29.575,16;
07/08/2013;00000001969;TRF DESDE OTRO BCO  00000000000046410548 0102                    ;                   +900,00;                     30.475,16;
07/08/2013;01309415689;DEPOSITO     01309415689                                         ;                 +1.200,00;                     31.675,16;
07/08/2013;01309460485;DEPOSITO     01309460485                                         ;                 +3.800,00;                     35.475,16;
07/08/2013;00204099245;TRANS.CTAS                                                       ;                 -2.000,00;                     33.475,16;
08/08/2013;01411062044;DEPOSITO     01411062044                                         ;                 +4.000,00;                     37.475,16;
09/08/2013;22134942552;RETIRO ATM CTA/CTE                                               ;                   -600,00;                     36.875,16;
12/08/2013;00046385413;CH. COMP. 46385413                                               ;                 -8.125,00;                     28.750,16;
13/08/2013;00205257464;TRANS.CTAS                                                       ;                 +2.000,00;                     30.750,16;
14/08/2013;00000006210;TRF DESDE OTRO BCO  00000000000000730887 0105                    ;                 +1.800,00;                     32.550,16;
14/08/2013;00047385416;CHEQUE :     00047385416                                         ;                   -677,60;                     31.872,56;
14/08/2013;00032385417;CHEQUE :     00032385417                                         ;                 -1.825,00;                     30.047,56;
14/08/2013;22616735636;RETIRO ATM CTA/CTE                                               ;                   -600,00;                     29.447,56;
14/08/2013;00205762688;TRANS.CTAS                                                       ;                 +1.200,00;                     30.647,56;
14/08/2013;00205515377;TRANS.CTAS                                                       ;                   +800,00;                     31.447,56;
14/08/2013;00205518939;TRANS.CTAS                                                       ;                   +800,00;                     32.247,56;
16/08/2013;22820421976;COMPRA POS CTA/CTE                                               ;                 -2.672,54;                     29.575,02;
16/08/2013;00000129119;TRF DESDE OTRO BCO  00000000000997396962 0114                    ;                 +2.400,00;                     31.975,02;
16/08/2013;00206300296;TRANS.CTAS                                                       ;                 +4.000,00;                     35.975,02;
20/08/2013;22970110016;COMPRA POS CTA/CTE                                               ;                   -682,03;                     35.292,99;
20/08/2013;40001966133;COMPRA POS CTA/CTE                                               ;                    -55,00;                     35.237,99;
20/08/2013;00000263657;TRF DESDE OTRO BCO  93581170V012069052   0108                    ;                   +800,00;                     36.037,99;
20/08/2013;01112340758;DEPOSITO     01112340758                                         ;                   +800,00;                     36.837,99;
22/08/2013;23416978525;COMPRA POS CTA/CTE                                               ;                   -910,00;                     35.927,99;
22/08/2013;00000010060;TRF DESDE OTRO BCO  00000000000000100047 0105                    ;                   +800,00;                     36.727,99;
26/08/2013;00000057955;TRF DESDE OTRO BCO  00000000000049899939 0102                    ;                 +2.000,00;                     38.727,99;
27/08/2013;23917532684;COMPRA POS CTA/CTE                                               ;                   -259,00;                     38.468,99;
27/08/2013;40001697951;COMPRA POS CTA/CTE                                               ;                   -640,00;                     37.828,99;
28/08/2013;01412484889;DEPOSITO     01412484889                                         ;                   +532,00;                     38.360,99;
28/08/2013;00020385419;CHEQUE :     00020385419                                         ;                 -1.230,00;                     37.130,99;
29/08/2013;00035385418;CH. COMP. 35385418                                               ;                 -4.000,00;                     33.130,99;
30/08/2013;00000022362;TRF DESDE OTRO BCO  00000000000000453873 0105                    ;                 +1.384,00;                     34.514,99;
30/08/2013;00000000000;COM.SERV.MTTO CTA                                                ;                     -4,50;                     34.510,49;
30/08/2013;00000000000;EMISION DE ESTADO DE CUENTA                                      ;                     -1,40;                     34.509,09;
02/09/2013;00210292025;TRANS.CTAS                                                       ;                 +5.400,00;                     39.909,09;
03/09/2013;00210698430;TRANS.CTAS                                                       ;                 -3.800,00;                     36.109,09;
03/09/2013;00210699463;TRANS.CTAS                                                       ;                -15.000,00;                     21.109,09;
03/09/2013;04971020047;TRANS.CTAS                                                       ;                +10.000,00;                     31.109,09;
03/09/2013;00210699828;TRANS.CTAS                                                       ;                 -9.500,00;                     21.609,09;
03/09/2013;00210700860;TRANS.CTAS                                                       ;                 +1.350,00;                     22.959,09;
03/09/2013;00210719606;TRANS.CTAS                                                       ;                   +572,00;                     23.531,09;
04/09/2013;29634411160;TRF TRANSFER/OTROS BANCOS     0105                               ;                 -1.065,00;                     22.466,09;
04/09/2013;29634411160;COMISION TRF OTROS BCOS                                          ;                     -1,60;                     22.464,49;
05/09/2013;01515545533;DEPOSITO     01515545533                                         ;                 +2.500,00;                     24.964,49;
05/09/2013;00211198910;TRANS.CTAS                                                       ;                 +1.000,00;                     25.964,49;
06/09/2013;40001420300;COMPRA POS CTA/CTE                                               ;                   -110,00;                     25.854,49;
06/09/2013;24970090008;COMPRA POS CTA/CTE                                               ;                   -290,22;                     25.564,27;
06/09/2013;00211683610;TRANS.CTAS                                                       ;                   +900,00;                     26.464,27;
06/09/2013;00211702712;TRANS.CTAS                                                       ;                   +900,00;                     27.364,27;
09/09/2013;40001600912;COMPRA POS CTA/CTE                                               ;                    -84,01;                     27.280,26;
10/09/2013;29735519410;TRF TRANSFER/OTROS BANCOS     0105                               ;                 -4.000,00;                     23.280,26;
10/09/2013;29735519410;COMISION TRF OTROS BCOS                                          ;                     -1,60;                     23.278,66;
10/09/2013;00000096740;TRF DESDE OTRO BCO  00000000000000967156 0105                    ;                 +1.800,00;                     25.078,66;
10/09/2013;01416183913;DEPOSITO     01416183913                                         ;                 +3.800,00;                     28.878,66;
11/09/2013;01631110000;COMPRA POS CTA/CTE                                               ;                   -105,00;                     28.773,66;
11/09/2013;29753715750;TRF TRANSFER/OTROS BANCOS     0102                               ;                 -1.200,00;                     27.573,66;
11/09/2013;29753715750;COMISION TRF OTROS BCOS                                          ;                     -1,60;                     27.572,06;
11/09/2013;29753623350;TRF TRANSFER/OTROS BANCOS     0151                               ;                 -2.885,19;                     24.686,87;
11/09/2013;29753623350;COMISION TRF OTROS BCOS                                          ;                     -1,60;                     24.685,27;
11/09/2013;00000019293;TRF DESDE OTRO BCO  94484974V004354197   0108                    ;                   +900,00;                     25.585,27;
12/09/2013;25519336657;COMPRA POS CTA/CTE                                               ;                 -9.884,00;                     15.701,27;
13/09/2013;25619199384;COMPRA POS CTA/CTE                                               ;                   -436,00;                     15.265,27;
13/09/2013;00213269327;TRANS.CTAS                                                       ;                 +3.800,00;                     19.065,27;
16/09/2013;25734830010;COMPRA POS CTA/CTE                                               ;                   -411,18;                     18.654,09;
16/09/2013;25921228102;COMPRA POS CTA/CTE                                               ;                   -240,00;                     18.414,09;
16/09/2013;01212252632;DEPOSITO     01212252632                                         ;                 +3.800,00;                     22.214,09;
16/09/2013;00028385420;CHEQUE :     00028385420                                         ;                 -1.945,50;                     20.268,59;
16/09/2013;00011385421;CHEQUE :     00011385421                                         ;                 -1.000,00;                     19.268,59;
16/09/2013;00213834369;TRANS.CTAS                                                       ;                 +2.500,00;                     21.768,59;
16/09/2013;00213834863;TRANS.CTAS                                                       ;                 +1.200,00;                     22.968,59;
16/09/2013;00213852537;TRANS.CTAS                                                       ;                 +1.900,00;                     24.868,59;
16/09/2013;00214117789;TRANS.CTAS                                                       ;                 +1.000,00;                     25.868,59;
17/09/2013;40001471536;COMPRA POS CTA/CTE                                               ;                    -84,04;                     25.784,55;
17/09/2013;40001503798;COMPRA POS CTA/CTE                                               ;                   -370,00;                     25.414,55;
17/09/2013;00000036312;TRF DESDE OTRO BCO  00000000000000292734 0105                    ;                 +2.400,00;                     27.814,55;
17/09/2013;26033427534;RETIRO ATM CTA/CTE                                               ;                   -600,00;                     27.214,55;
17/09/2013;00214371297;TRANS.CTAS                                                       ;                 +1.800,00;                     29.014,55;
18/09/2013;33753751394;DEPOSITO     33753751394                                         ;                   +900,00;                     29.914,55;
18/09/2013;01312294542;DEPOSITO     01312294542                                         ;                 +1.200,00;                     31.114,55;
18/09/2013;01409342317;DEPOSITO     01409342317                                         ;                 +1.200,00;                     32.314,55;
19/09/2013;01611054185;DEPOSITO     01611054185                                         ;                 +1.200,00;                     33.514,55;
19/09/2013;00215157854;TRANS.CTAS                                                       ;                 +1.200,00;                     34.714,55;
20/09/2013;26317076131;COMPRA POS CTA/CTE                                               ;                    -87,00;                     34.627,55;
20/09/2013;40001022395;COMPRA POS CTA/CTE                                               ;                    -58,00;                     34.569,55;
20/09/2013;40001573010;COMPRA POS CTA/CTE                                               ;                   -134,40;                     34.435,15;
23/09/2013;26470070005;COMPRA POS CTA/CTE                                               ;                   -517,97;                     33.917,18;
23/09/2013;26615086485;COMPRA POS CTA/CTE                                               ;                   -720,00;                     33.197,18;
23/09/2013;00215884287;TRANS.CTAS                                                       ;                 +3.800,00;                     36.997,18;
24/09/2013;00216073009;TRANS.CTAS                                                       ;                 -5.000,00;                     31.997,18;
24/09/2013;00216165247;TRANS.CTAS                                                       ;                 +1.200,00;                     33.197,18;
26/09/2013;30008353270;TRF TRANSFER/OTROS BANCOS     0105                               ;                 -9.000,00;                     24.197,18;
26/09/2013;30008353270;COMISION TRF OTROS BCOS                                          ;                     -1,60;                     24.195,58;
30/09/2013;27110297735;RETIRO ATM CTA/CTE                                               ;                   -600,00;                     23.595,58;
30/09/2013;27110297735;C.SERV.CAJERO AUT.                                               ;                     -3,25;                     23.592,33;
30/09/2013;40001349122;COMPRA POS CTA/CTE                                               ;                -13.278,59;                     10.313,74;
30/09/2013;30058924780;TRF TRANSFER/OTROS BANCOS     0115                               ;                    -50,00;                     10.263,74;
30/09/2013;30058924780;COMISION TRF OTROS BCOS                                          ;                     -1,60;                     10.262,14;
30/09/2013;30064840300;TRF TRANSFER/OTROS BANCOS     0105                               ;                 -5.000,00;                      5.262,14;
30/09/2013;30064840300;COMISION TRF OTROS BCOS                                          ;                     -1,60;                      5.260,54;
30/09/2013;00000000000;COM.SERV.MTTO CTA                                                ;                     -4,50;                      5.256,04;
30/09/2013;00000000000;EMISION DE ESTADO DE CUENTA                                      ;                     -1,40;                      5.254,64;
30/09/2013;04971020047;TRANS.CTAS                                                       ;                +10.000,00;                     15.254,64;
01/10/2013;30091433700;TRF TRANSFER/OTROS BANCOS     0105                               ;                 -2.800,00;                     12.454,64;
01/10/2013;30091433700;COMISION TRF OTROS BCOS                                          ;                     -1,60;                     12.453,04;
01/10/2013;00218007414;TRANS.CTAS                                                       ;                 +2.500,00;                     14.953,04;
02/10/2013;00000005717;TRF DESDE OTRO BCO  00000000000076328977 0102                    ;                 +1.900,00;                     16.853,04;
02/10/2013;00218501026;TRANS.CTAS                                                       ;                 +2.500,00;                     19.353,04;
02/10/2013;01210543206;DEPOSITO     01210543206                                         ;                 +3.800,00;                     23.153,04;
03/10/2013;00218845564;TRANS.CTAS                                                       ;                 +2.800,00;                     25.953,04;
03/10/2013;00218780514;TRANS.CTAS                                                       ;                 +2.200,00;                     28.153,04;
04/10/2013;27703660031;COMPRA POS CTA/CTE                                               ;                   -185,73;                     27.967,31;
04/10/2013;27715860002;COMPRA POS CTA/CTE                                               ;                   -748,17;                     27.219,14;
04/10/2013;27719713140;RETIRO ATM CTA/CTE                                               ;                   -400,00;                     26.819,14;
04/10/2013;00219314151;TRANS.CTAS                                                       ;                 +1.000,00;                     27.819,14;
07/10/2013;00219510978;TRANS.CTAS                                                       ;                 +3.800,00;                     31.619,14;
08/10/2013;00000126623;TRF DESDE OTRO BCO  00000122410000060000 0115                    ;                 +1.900,00;                     33.519,14;
08/10/2013;00000127923;TRF DESDE OTRO BCO  00000122410000059738 0115                    ;                 +1.900,00;                     35.419,14;
08/10/2013;00220174803;TRANS.CTAS                                                       ;                 -1.200,00;                     34.219,14;
08/10/2013;00220183189;TRANS.CTAS                                                       ;                 +1.900,00;                     36.119,14;
09/10/2013;00220493246;TRANS.CTAS                                                       ;                   -538,16;                     35.580,98;
10/10/2013;30275334330;TRF TRANSFER/OTROS BANCOS     0105                               ;                 -5.000,00;                     30.580,98;
10/10/2013;30275334330;COMISION TRF OTROS BCOS                                          ;                     -1,60;                     30.579,38;
10/10/2013;30267377860;TRF TRANSFER/OTROS BANCOS     0105                               ;                   -900,00;                     29.679,38;
10/10/2013;30267377860;COMISION TRF OTROS BCOS                                          ;                     -1,60;                     29.677,78;
10/10/2013;00000017075;TRF DESDE OTRO BCO  00000000000000370463 0105                    ;                 +1.000,00;                     30.677,78;
10/10/2013;37067100758;DEPOSITO EN CUENTA CON CHEQUE                                    ;                   +785,72;                     31.463,50;
11/10/2013;00221194606;TRANS.CTAS                                                       ;                 -1.800,00;                     29.663,50;
11/10/2013;00221259200;TRANS.CTAS                                                       ;                 +3.800,00;                     33.463,50;
14/10/2013;28540320036;COMPRA POS CTA/CTE                                               ;                   -765,64;                     32.697,86;
14/10/2013;28551190027;COMPRA POS CTA/CTE                                               ;                 -1.475,99;                     31.221,87;
14/10/2013;01216092109;DEPOSITO     01216092109                                         ;                 +3.800,00;                     35.021,87;
15/10/2013;00000001395;TRF DESDE OTRO BCO  00000000000060208511 0102                    ;                 +1.800,00;                     36.821,87;
15/10/2013;00222113540;TRANS.CTAS                                                       ;                 +1.300,00;                     38.121,87;
15/10/2013;00222178655;TRANS.CTAS                                                       ;                 -2.500,00;                     35.621,87;
16/10/2013;28918229716;COMPRA POS CTA/CTE                                               ;                   -403,00;                     35.218,87;
16/10/2013;00000000001;PAGO PROVE /EDI RIALFI CONSULT                                   ;                 +1.000,00;                     36.218,87;
16/10/2013;00000000002;PAGO PROVE /EDI RIALFI CONSULT                                   ;                 +3.800,00;                     40.018,87;
16/10/2013;13893894382;DEPOSITO EN CUENTA CON CHEQUE                                    ;                 +3.495,50;                     43.514,37;
17/10/2013;29070060058;COMPRA POS CTA/CTE                                               ;                   -429,67;                     43.084,70;
17/10/2013;00046385422;CH. COMP. 46385422                                               ;                 -3.000,00;                     40.084,70;
18/10/2013;30422567050;TRF TRANSFER/OTROS BANCOS     0105                               ;                 -5.000,00;                     35.084,70;
18/10/2013;30422567050;COMISION TRF OTROS BCOS                                          ;                     -1,60;                     35.083,10;
18/10/2013;02124146724;MOVISTAR CARGO C/CTA. TELEFONIA FIJA                             ;                   -100,00;                     34.983,10;
21/10/2013;29223930038;COMPRA POS CTA/CTE                                               ;                   -199,40;                     34.783,70;
21/10/2013;29269120047;COMPRA POS CTA/CTE                                               ;                 -1.979,70;                     32.804,00;
21/10/2013;01112212168;DEPOSITO     01112212168                                         ;                 +1.000,00;                     33.804,00;
21/10/2013;00223631112;TRANS.CTAS                                                       ;                 +1.200,00;                     35.004,00;
21/10/2013;00223835787;TRANS.CTAS                                                       ;                 +1.200,00;                     36.204,00;
22/10/2013;00000023551;TRF DESDE OTRO BCO  96317279V017390399   0108                    ;                 +1.200,00;                     37.404,00;
22/10/2013;00224227003;TRANS.CTAS                                                       ;                 -1.189,00;                     36.215,00;
23/10/2013;29646080022;COMPRA POS CTA/CTE                                               ;                 -6.346,67;                     29.868,33;
23/10/2013;29653300015;COMPRA POS CTA/CTE                                               ;                 -1.100,00;                     28.768,33;
23/10/2013;29618163219;COMPRA POS CTA/CTE                                               ;                   -750,00;                     28.018,33;
23/10/2013;29617236718;C.RECHAZO ATM                                                    ;                     -0,75;                     28.017,58;
23/10/2013;00224562429;TRANS.CTAS                                                       ;                   -500,00;                     27.517,58;
24/10/2013;00224800334;TRANS.CTAS                                                       ;                 +2.500,00;                     30.017,58;
25/10/2013;29800550050;COMPRA POS CTA/CTE                                               ;                   -718,75;                     29.298,83;
25/10/2013;30532633910;TRF TRANSFER/OTROS BANCOS     0108                               ;                   -900,00;                     28.398,83;
25/10/2013;30532633910;COMISION TRF OTROS BCOS                                          ;                     -1,60;                     28.397,23;
25/10/2013;00000077421;TRF DESDE OTRO BCO  00000000000000085136 0102                    ;                 +1.500,00;                     29.897,23;
25/10/2013;01114481723;DEPOSITO     01114481723                                         ;                 +3.800,00;                     33.697,23;
28/10/2013;40001604031;COMPRA POS CTA/CTE                                               ;                   -750,00;                     32.947,23;
28/10/2013;30548247950;TRF TRANSFER/OTROS BANCOS     0105                               ;                 -4.500,00;                     28.447,23;
28/10/2013;30548247950;COMISION TRF OTROS BCOS                                          ;                     -1,60;                     28.445,63;
28/10/2013;00000012149;PPV 00000000002903480505      0105                               ;                 +3.494,64;                     31.940,27;
28/10/2013;00000058615;TRF DESDE OTRO BCO  00000000000000181194 0105                    ;                 +2.400,00;                     34.340,27;
28/10/2013;33753752591;DEPOSITO     33753752591                                         ;                 +1.200,00;                     35.540,27;
28/10/2013;00225386578;TRANS.CTAS                                                       ;                 +2.400,00;                     37.940,27;
28/10/2013;00225388195;TRANS.CTAS                                                       ;                   -346,22;                     37.594,05;
28/10/2013;29912953365;RETIRO ATM CTA/CTE                                               ;                   -500,00;                     37.094,05;
31/10/2013;30634810400;TRF TRANSFER/OTROS BANCOS     0102                               ;                 -1.500,00;                     35.594,05;
31/10/2013;30634810400;COMISION TRF OTROS BCOS                                          ;                     -1,60;                     35.592,45;
31/10/2013;30636045870;TRF TRANSFER/OTROS BANCOS     0108                               ;                 -1.200,00;                     34.392,45;
31/10/2013;30636045870;COMISION TRF OTROS BCOS                                          ;                     -1,60;                     34.390,85;
31/10/2013;00000000000;COM.SERV.MTTO CTA                                                ;                     -4,50;                     34.386,35;
31/10/2013;00000000000;EMISION DE ESTADO DE CUENTA                                      ;                     -1,40;                     34.384,95;
31/10/2013;00226641191;TRANS.CTAS                                                       ;                 +1.200,00;                     35.584,95;
31/10/2013;00226907190;TRANS.CTAS                                                       ;                 -1.200,00;                     34.384,95;
05/11/2013;30683317740;TRF TRANSFER/OTROS BANCOS     0105                               ;                 -1.351,36;                     33.033,59;
05/11/2013;30683317740;COMISION TRF OTROS BCOS                                          ;                     -1,60;                     33.031,99;
05/11/2013;30691115920;TRF TRANSFER/OTROS BANCOS     0108                               ;                 -3.800,00;                     29.231,99;
05/11/2013;30691115920;COMISION TRF OTROS BCOS                                          ;                     -1,60;                     29.230,39;
05/11/2013;00000312488;TRF DESDE OTRO BCO  96898731V012069052   0108                    ;                   +400,00;                     29.630,39;
05/11/2013;00000330480;TRF DESDE OTRO BCO  96952994J400944457   0108                    ;                 +3.800,00;                     33.430,39;
05/11/2013;01113561318;DEPOSITO     01113561318                                         ;                 +2.000,00;                     35.430,39;
05/11/2013;00228422169;TRANS.CTAS                                                       ;                 +1.200,00;                     36.630,39;
05/11/2013;00228254629;TRANS.CTAS                                                       ;                 +3.000,00;                     39.630,39;
05/11/2013;37067101667;DEPOSITO     37067101667                                         ;                   +500,00;                     40.130,39;
06/11/2013;30752593870;TRF TRANSFER/OTROS BANCOS     0105                               ;                 -5.000,00;                     35.130,39;
06/11/2013;30752593870;COMISION TRF OTROS BCOS                                          ;                     -1,60;                     35.128,79;
06/11/2013;30755332480;TRF TRANSFER/OTROS BANCOS     0105                               ;                 -9.000,00;                     26.128,79;
06/11/2013;30755332480;COMISION TRF OTROS BCOS                                          ;                     -1,60;                     26.127,19;
06/11/2013;00000022789;TRF DESDE OTRO BCO  00000000000000699250 0105                    ;                 +3.000,00;                     29.127,19;
06/11/2013;00228692439;TRANS.CTAS                                                       ;                 +4.000,00;                     33.127,19;
06/11/2013;00228525010;TRANS.CTAS                                                       ;                 +2.400,00;                     35.527,19;
06/11/2013;00228527983;TRANS.CTAS                                                       ;                 +2.400,00;                     37.927,19;
06/11/2013;01712295904;DEPOSITO     01712295904                                         ;                 +2.400,00;                     40.327,19;
07/11/2013;02129539221;PAGO CANTV                                                       ;                   -293,77;                     40.033,42;
07/11/2013;00229174391;TRANS.CTAS                                                       ;                 -9.500,00;                     30.533,42;
08/11/2013;00000030633;TRF DESDE OTRO BCO  97126084V013860991   0108                    ;                 +2.000,00;                     32.533,42;
08/11/2013;00000030676;TRF DESDE OTRO BCO  97125744V013860991   0108                    ;                 +2.000,00;                     34.533,42;
08/11/2013;21031033614;DEPOSITO     21031033614                                         ;                 +1.200,00;                     35.733,42;
08/11/2013;00229544302;TRANS.CTAS                                                       ;                 +1.200,00;                     36.933,42;
11/11/2013;08147110000;COMPRA POS CTA/CTE                                               ;                 -1.436,00;                     35.497,42;
11/11/2013;00000020535;TRF DESDE OTRO BCO  00000000000000915705 0105                    ;                 +1.000,00;                     36.497,42;
11/11/2013;00229788854;TRANS.CTAS                                                       ;                   -230,00;                     36.267,42;
12/11/2013;00000012145;TRF DESDE OTRO BCO  00000000000000004578 0105                    ;                 +1.200,00;                     37.467,42;
13/11/2013;31741210075;COMPRA POS CTA/CTE                                               ;                   -754,00;                     36.713,42;
13/11/2013;00000011003;TRF DESDE OTRO BCO  00000000000000059836 0105                    ;                 +1.200,00;                     37.913,42;
14/11/2013;30925462430;TRF TRANSFER/OTROS BANCOS     0108                               ;                   -600,00;                     37.313,42;
14/11/2013;30925462430;COMISION TRF OTROS BCOS                                          ;                     -1,60;                     37.311,82;
14/11/2013;01612474650;DEPOSITO     01612474650                                         ;                 +2.142,86;                     39.454,68;
15/11/2013;30956420790;TRF TRANSFER/OTROS BANCOS     0105                               ;                 -4.500,00;                     34.954,68;
15/11/2013;30956420790;COMISION TRF OTROS BCOS                                          ;                     -1,60;                     34.953,08;
15/11/2013;00000208577;TRF DESDE OTRO BCO  00000122410000531484 0115                    ;                 +1.900,00;                     36.853,08;
15/11/2013;00231726913;TRANS.CTAS                                                       ;                -20.000,00;                     16.853,08;
18/11/2013;32070100013;COMPRA POS */*                                                   ;                   -809,81;                     16.043,27;
18/11/2013;32026940095;COMPRA POS */*                                                   ;                 -1.188,82;                     14.854,45;
18/11/2013;30973784990;TRF TRANSFER/OTROS BANCOS     0108                               ;                   -600,00;                     14.254,45;
18/11/2013;30973784990;COMISION TRF OTROS BCOS                                          ;                     -1,60;                     14.252,85;
18/11/2013;00000241855;TRF DESDE OTRO BCO  00000000000020427312 0175                    ;                 +1.200,00;                     15.452,85;
